…
      rvest::read_html(x) %>%             # llamo a la función read_html() para obtener el contenido de la página
        
        rvest::html_elements(".ue-c-cover-content__headline-group") %>%  # llamo a la función html_elements() y especifico las etiquetas de los títulos 
        
        rvest::html_text() %>%            # llamo a la función html_text() para especificar el formato 'chr' del título.
        
        tibble::as_tibble() %>%           # llamo a la función as_tibble() para transforma el vector en tabla 
        
        dplyr::rename(titulo = value)     # llamo a la función rename() para renombrar la variable 'value'
      
    }                                     # cierro la función para raspado web
    # Usamos la función para scrapear el diario El Mundo ----------------------------------------------
    (El_Mundo <- scraping_EM("https://www.elmundo.es/espana.html"))

    ## # A tibble: 65 x 1
    ##    titulo                                                                       
    ##    <chr>                                                                        
    ##  1 "Política. La anulación del impuesto de plusvalía amenaza los Presupuestos d~
    ##  2 "Política. Moncloa quiere tutelar la negociación de la reforma laboral senta~
    ##  3 "Política. La coalición de los líos: Unidas Podemos ataca por tierra, mar y ~
    ##  4 "A contrapelo. Dejadme los anuncios"                                         
    ##  5 "Terrorismo. Las víctimas del terrorismo confían en la misión de la UE sobre~
    ##  6 "Justicia. La Ley de plurilingüismo, camino por primera vez de los tribunale~
    ##  7 "Justicia. Alberto Rodríguez acusa a Batet ante el Supremo de \"modificar\" ~
    ##  8 "Congreso. El PSOE desata el malestar de sus aliados retrasando de nuevo la ~
    ##  9 "Cataluña. ERC abandona a Borràs en su intento de blindarse ante una inhabil~
    ## 10 "Política. Unidas Podemos se opone al PSOE en todos los frentes y acusa al j~
    ## # ... with 55 more rows
…
        rvest::html_elements(tag_link) %>%            # llamo a la función html_elements() y especifico las etiquetas de los títulos 
        
        rvest::html_attr("href") %>%                  # llamo a la función html_attr() para especificar el formato 'chr' del título.
        
        rvest::url_absolute(pag_web) %>%              # llamo a la función url::absolute() para completar las URLs relativas
        
        tibble::as_tibble() %>%                       # llamo a la función as_tibble() para transforma el vector en tabla
        
        dplyr::rename(link = value)                   # llamo a la función rename() para renombrar la variable 'value'
      
    }                                                 # cierro la función para raspado web
    # Usamos la función para scrapear el diario El Mundo ----------------------------------------------
    (links_EM <- scraping_links(pag_web = "https://www.elmundo.es/economia.html", tag_link = "a.ue-c-cover-content__link"))

    ## # A tibble: 65 x 1
    ##    link                                                                         
    ##    <chr>                                                                        
    ##  1 https://www.elmundo.es/economia/macroeconomia/2021/10/27/61781ec621efa0576d8~
    ##  2 https://www.elmundo.es/ciencia-y-salud/medio-ambiente/2021/10/27/61782618fdd~
    ##  3 https://www.elmundo.es/economia/empresas/2021/10/27/6177f02afdddff39678b45a6~
    ##  4 https://www.elmundo.es/economia/actualidad-economica/2021/10/27/616fe68ee4d4~
    ##  5 https://www.elmundo.es/economia/2021/10/27/6178506dfdddff22178b459f.html     
    ##  6 https://www.elmundo.es/ciencia-y-salud/medio-ambiente/2021/10/27/617819fc21e~
    ##  7 https://www.elmundo.es/economia/2021/10/26/6178322921efa0c12d8b4579.html     
    ##  8 https://www.elmundo.es/economia/ahorro-y-consumo/2021/10/26/6177f2e1fdddff91~
    ##  9 https://www.elmundo.es/economia/2021/10/26/6177df70fc6c83fa368c0240.html     
    ## 10 https://www.elmundo.es/economia/empresas/2021/10/26/6177caacfc6c8306268b45dd~
    ## # ... with 55 more rows

    # Usamos la función para scrapear el diario El País -----------------------------------------------
    (links_EP <- scraping_links(pag_web = "https://elpais.com/espana/", tag_link = "h2 a")) 

    ## # A tibble: 59 x 1
    ##    link                                                                         
    ##    <chr>                                                                        
    ##  1 https://elpais.com/espana/catalunya/2021-10-27/el-estado-mayor-del-independe~
    ##  2 https://elpais.com/espana/catalunya/2021-10-27/el-norteamericano-que-se-colo~
    ##  3 https://elpais.com/espana/2021-10-27/las-instituciones-siguen-su-marcha-entr~
    ##  4 https://elpais.com/opinion/2021-10-25/o-belarra-rectifica-o-mejor-que-se-vay~
    ##  5 https://elpais.com/opinion/2021-10-24/tanto-esperar-para-esto.html           
    ##  6 https://elpais.com/opinion/2021-10-22/espana-y-la-mala-memoria.html          
    ##  7 https://elpais.com/opinion/2021-10-14/los-dilemas-del-psoe-redefinir-el-prog~
    ##  8 https://elpais.com/opinion/2021-10-11/mas-autonomia-estrategica.html         
    ##  9 https://elpais.com/espana/2021-10-26/el-gobierno-acepta-que-trabajo-lidere-l~
    ## 10 https://elpais.com/economia/2021-10-26/la-temporalidad-y-los-convenios-los-g~
    ## # ... with 49 more rows
…
        rvest::html_elements(tag_link) %>%            # llamo a la función html_elements() y especifico las etiquetas de los títulos 
        
        rvest::html_attr("href") %>%                  # llamo a la función html_attr() para especificar el formato 'chr' del título.
        
        rvest::url_absolute(pag_web) %>%              # llamo a la función url::absolute() para completar las URLs relativas
        
        tibble::as_tibble() %>%                       # llamo a la función as_tibble() para transforma el vector en tabla
        
        dplyr::rename(link = value)                   # llamo a la función rename() para renombrar la variable 'value'
      
    }                                                 # cierro la función para raspado web
    # Usamos la función para scrapear los links a las notas de El País -------------------------------
    (links_EP  <- scraping_links(pag_web = "https://elpais.com/espana/", tag_link = "h2 a")) 

    ## # A tibble: 59 x 1
    ##    link                                                                         
    ##    <chr>                                                                        
    ##  1 https://elpais.com/espana/catalunya/2021-10-27/el-estado-mayor-del-independe~
    ##  2 https://elpais.com/espana/catalunya/2021-10-27/el-norteamericano-que-se-colo~
    ##  3 https://elpais.com/espana/2021-10-27/las-instituciones-siguen-su-marcha-entr~
    ##  4 https://elpais.com/opinion/2021-10-25/o-belarra-rectifica-o-mejor-que-se-vay~
    ##  5 https://elpais.com/opinion/2021-10-24/tanto-esperar-para-esto.html           
    ##  6 https://elpais.com/opinion/2021-10-22/espana-y-la-mala-memoria.html          
    ##  7 https://elpais.com/opinion/2021-10-14/los-dilemas-del-psoe-redefinir-el-prog~
    ##  8 https://elpais.com/opinion/2021-10-11/mas-autonomia-estrategica.html         
    ##  9 https://elpais.com/espana/2021-10-26/el-gobierno-acepta-que-trabajo-lidere-l~
    ## 10 https://elpais.com/economia/2021-10-26/la-temporalidad-y-los-convenios-los-g~
    ## # ... with 49 more rows
…
            ".a_ti",                    # etiqueta de fecha.
            
            "h1",                       # etiqueta de título.
            
            ".a_b"),                    # etiqueta de nota y cierro la función list().
          
          scraping_notas))              # función scraping_notas() sin los `()` y cierro la función pmap_dfr() y la función print `)`.

    ## # A tibble: 0 x 3
    ## # ... with 3 variables: fecha <chr>, titulo <chr>, nota <chr>

    # Usamos la función para scrapear los links a las notas de La Nación -------------------------------
    (links_LN <- scraping_links(pag_web = "https://www.lanacion.com.ar/politica", tag_link = "h2 a"))

    ## # A tibble: 30 x 1
    ##    link                                                                         
    ##    <chr>                                                                        
    ##  1 https://www.lanacion.com.ar/politica/la-camara-de-diputados-se-apresta-a-con~
    ##  2 https://www.lanacion.com.ar/politica/maria-eugenia-vidal-le-contesto-a-marti~
    ##  3 https://www.lanacion.com.ar/politica/leandro-santoro-sobre-el-conflicto-mapu~
    ##  4 https://www.lanacion.com.ar/politica/el-oficialismo-freno-la-ficha-limpia-en~
    ##  5 https://www.lanacion.com.ar/politica/nadie-sabe-que-hara-la-vicepresidenta-n~
    ##  6 https://www.lanacion.com.ar/politica/desde-el-pro-denunciaron-que-en-un-cole~
    ##  7 https://www.lanacion.com.ar/politica/en-plena-campana-el-intendente-de-la-pl~
    ##  8 https://www.lanacion.com.ar/politica/el-detras-de-escena-de-la-primera-excur~
    ##  9 https://www.lanacion.com.ar/politica/washington-marca-la-cancha-antes-de-un-~
    ## 10 https://www.lanacion.com.ar/politica/juicio-contra-cristina-kirchner-un-empr~
    ## # ... with 20 more rows

    # Usamos la función para scrapear las notas de La Nación. Replicamos todo en una sola línea de código.
    (la_nacion_ar <- purrr::pmap_dfr(list(links_LN$link[1:10],".com-date.--twoxs",".com-title.--threexl",".col-12 p"), scraping_notas)) # "section.fecha","h1.titulo","#cuerpo p" scraping_notas))

    ## # A tibble: 135 x 3
    ##    fecha                 titulo                      nota                       
    ##    <chr>                 <chr>                       <chr>                      
    ##  1 27 de octubre de 2021 La Cámara de Diputados con~ Tras varias horas de inten~
    ##  2 27 de octubre de 2021 La Cámara de Diputados con~ El proyecto, que obtuvo me~
    ##  3 27 de octubre de 2021 La Cámara de Diputados con~ El oficialismo, en la voz ~
    ##  4 27 de octubre de 2021 La Cámara de Diputados con~ “Con esta ley vamos a subi~
    ##  5 27 de octubre de 2021 La Cámara de Diputados con~ En la misma línea, la dipu~
    ##  6 27 de octubre de 2021 La Cámara de Diputados con~ En la vereda contraria, lo~
    ##  7 27 de octubre de 2021 La Cámara de Diputados con~ “Debemos pensar en un sist~
    ##  8 27 de octubre de 2021 La Cámara de Diputados con~ El diputado y presidente d~
    ##  9 27 de octubre de 2021 La Cámara de Diputados con~ “En general, es un proyect~
    ## 10 27 de octubre de 2021 La Cámara de Diputados con~ La bancada de Juntos por e~
    ## # ... with 125 more rows
…
    # Detectamos que hay algunas filas que son recurrente y debemos borrar:
       # "Celdas vacías"
    # Con el uso del paquete stringr vamos a remover estos fragmentos de información no útil.
    (la_nacion_ar_limpia <- la_nacion_ar %>%                                  # creamos un nuevo objeto clase tibble.
        
        dplyr::mutate(nota = stringr::str_trim(nota)) %>%                     # con las funciones mutate() y str_trim() quitamos los espacios en blanco sobrantes.
        
        dplyr::filter(nota != ""))                                            # con la función filter() descartamos las celdas vacías.

    ## # A tibble: 125 x 3
    ##    fecha                 titulo                      nota                       
    ##    <chr>                 <chr>                       <chr>                      
    ##  1 27 de octubre de 2021 La Cámara de Diputados con~ Tras varias horas de inten~
    ##  2 27 de octubre de 2021 La Cámara de Diputados con~ El proyecto, que obtuvo me~
    ##  3 27 de octubre de 2021 La Cámara de Diputados con~ El oficialismo, en la voz ~
    ##  4 27 de octubre de 2021 La Cámara de Diputados con~ “Con esta ley vamos a subi~
    ##  5 27 de octubre de 2021 La Cámara de Diputados con~ En la misma línea, la dipu~
    ##  6 27 de octubre de 2021 La Cámara de Diputados con~ En la vereda contraria, lo~
    ##  7 27 de octubre de 2021 La Cámara de Diputados con~ “Debemos pensar en un sist~
    ##  8 27 de octubre de 2021 La Cámara de Diputados con~ El diputado y presidente d~
    ##  9 27 de octubre de 2021 La Cámara de Diputados con~ “En general, es un proyect~
    ## 10 27 de octubre de 2021 La Cámara de Diputados con~ La bancada de Juntos por e~
    ## # ... with 115 more rows
…
      nota = rvest::html_elements(                  # declaro la variable nota y llamo a la función html_elements(). 
        
        rvest::read_html(pag_web), tag_nota) %>%    # llamo a la función read_html(pag_web) y especifico la(s) etiqueta(s) de la nota.  
        
        rvest::html_text()                          # llamo a la función html_text() para especificar el formato 'chr' de la nota.
      
      )                                             # cierro la función tibble().
      
    }                                               # cierro la función para raspado web.
    # Usamos la función pmap_dfr() para emparejar los links y la función de web scraping y 
    # creamos el objeto la_nacion_politica con 20 notas completas
    (la_nacion_politica <- purrr::pmap_dfr(list(ln_sec_pol$link[1:20],".com-date.--twoxs",".com-title.--threexl",".col-12 p"), scraping_notas))

    ## # A tibble: 241 x 3
    ##    fecha                 titulo                      nota                       
    ##    <chr>                 <chr>                       <chr>                      
    ##  1 27 de octubre de 2021 La Cámara de Diputados con~ Tras varias horas de inten~
    ##  2 27 de octubre de 2021 La Cámara de Diputados con~ El proyecto, que obtuvo me~
    ##  3 27 de octubre de 2021 La Cámara de Diputados con~ El oficialismo, en la voz ~
    ##  4 27 de octubre de 2021 La Cámara de Diputados con~ “Con esta ley vamos a subi~
    ##  5 27 de octubre de 2021 La Cámara de Diputados con~ En la misma línea, la dipu~
    ##  6 27 de octubre de 2021 La Cámara de Diputados con~ En la vereda contraria, lo~
    ##  7 27 de octubre de 2021 La Cámara de Diputados con~ “Debemos pensar en un sist~
    ##  8 27 de octubre de 2021 La Cámara de Diputados con~ El diputado y presidente d~
    ##  9 27 de octubre de 2021 La Cámara de Diputados con~ “En general, es un proyect~
    ## 10 27 de octubre de 2021 La Cámara de Diputados con~ La bancada de Juntos por e~
    ## # ... with 231 more rows
…
    ## [[1]]
    ## # A tibble: 6 x 6
    ##   Continente `Densidad(hab./~ `Superficie(km²~ `Población(2020~ `País más pobla~
    ##   <chr>      <chr>            <chr>            <chr>            <chr>           
    ## 1 Asia       106,8            44.010.000       4.701.010.000    China (1.440.00~
    ## 2 África     43,4             30.370.000       1.320.000.000    Nigeria (209.20~
    ## 3 América    25,3             43.316.000       1.098.064.000    Estados Unidos ~
    ## 4 Europa     78,6             10.180.000       801.000.000      Rusia (112.000.~
    ## 5 Oceanía    4,46             9.008.500        40.201.000       Australia (27.2~
    ## 6 Antártida  0,0003(varía)    13.720.000       4.490(no perman~ N.D.[nota 1]<U+200B>    
    ## # ... with 1 more variable: Ciudad más poblada(2020) <chr>
    ## 
    ## [[2]]
    ## # A tibble: 29 x 9
    ##    Año         Total         África        Asia  Europa América Oceanía `Crecimientoent~
    ##    <chr>       <chr>         <chr>         <chr> <chr>  <chr>   <chr>   <chr>           
    ##  1 10000 a. C. 1 000 000     ""            ""    ""     ""      ""      ""              
    ##  2 8000 a. C.  8 000 000     ""            ""    ""     ""      ""      ""              
    ##  3 1000 a. C.  50 000 000    ""            ""    ""     ""      ""      ""              
    ##  4 500 a. C.   100 000 000   ""            ""    ""     ""      ""      ""              
    ##  5 1 d.C.      200 000 000   ""            ""    ""     ""      ""      ""              
    ##  6 1000        310 000 000   ""            ""    ""     ""      ""      ""              
    ##  7 1750        791 000 000   "106 000 000" "502~ "163 ~ "18 00~ "2 000~ ""              
    ##  8 1800        978 000 000   "107 000 000" "635~ "203 ~ "31 00~ "2 000~ "23,64%"        
    ##  9 1850        1 262 000 000 "111 000 000" "809~ "276 ~ "64 00~ "2 000~ "29,04%"        
    ## 10 1900        1 650 000 000 "133 000 000" "947~ "408 ~ "156 0~ "6 000~ "30,74%"        
    ## # ... with 19 more rows, and 1 more variable: Crecimientoanual medio (%) <chr>
    ## 
    ## [[3]]
…
    ## [[1]]
    ## # A tibble: 6 x 6
    ##   Continente `Densidad(hab./~ `Superficie(km²~ `Población(2020~ `País más pobla~
    ##   <chr>      <chr>            <chr>            <chr>            <chr>           
    ## 1 Asia       106,8            44.010.000       4.701.010.000    China (1.440.00~
    ## 2 África     43,4             30.370.000       1.320.000.000    Nigeria (209.20~
    ## 3 América    25,3             43.316.000       1.098.064.000    Estados Unidos ~
    ## 4 Europa     78,6             10.180.000       801.000.000      Rusia (112.000.~
    ## 5 Oceanía    4,46             9.008.500        40.201.000       Australia (27.2~
    ## 6 Antártida  0,0003(varía)    13.720.000       4.490(no perman~ N.D.[nota 1]<U+200B>    
    ## # ... with 1 more variable: Ciudad más poblada(2020) <chr>
    ## 
    ## [[2]]
    ## # A tibble: 29 x 9
    ##    Año         Total         África        Asia  Europa América Oceanía `Crecimientoent~
    ##    <chr>       <chr>         <chr>         <chr> <chr>  <chr>   <chr>   <chr>           
    ##  1 10000 a. C. 1 000 000     ""            ""    ""     ""      ""      ""              
    ##  2 8000 a. C.  8 000 000     ""            ""    ""     ""      ""      ""              
    ##  3 1000 a. C.  50 000 000    ""            ""    ""     ""      ""      ""              
    ##  4 500 a. C.   100 000 000   ""            ""    ""     ""      ""      ""              
    ##  5 1 d.C.      200 000 000   ""            ""    ""     ""      ""      ""              
    ##  6 1000        310 000 000   ""            ""    ""     ""      ""      ""              
    ##  7 1750        791 000 000   "106 000 000" "502~ "163 ~ "18 00~ "2 000~ ""              
    ##  8 1800        978 000 000   "107 000 000" "635~ "203 ~ "31 00~ "2 000~ "23,64%"        
    ##  9 1850        1 262 000 000 "111 000 000" "809~ "276 ~ "64 00~ "2 000~ "29,04%"        
    ## 10 1900        1 650 000 000 "133 000 000" "947~ "408 ~ "156 0~ "6 000~ "30,74%"        
    ## # ... with 19 more rows, and 1 more variable: Crecimientoanual medio (%) <chr>
…
